{
    "configurations": {
        "mongoConfig": {
            "connectionString": "mongodb://localhost:27017/cp-qa"
        },
        "serverConfig": {
            "port": 20201,
            "routePrefix": "/api"
        },
        "rbacConfig": {
            "webSessionTime": 1800000,
            "mobileIOSSessionDay": 30,
            "tvSessionDay": 30,
            "defaultToken": "abcd1234"
        },
        "externalUrls": {},
        "myHost": "localhost"
    }
}