{
    "configurations": {
        "mongoConfig": {
            "connectionString": "mongodb://localhost:27017/cp-dev"
        },
        "rabbitmqConfig": {
            "host": "amqp://guest:guest@localhost",
            "port": "5672"
        },
        "serverConfig": {
            "port": 20200,
            "routePrefix": "/api",
            "swaggerBasePath": "/",
            "SwaggerSchemes": "http"
        },
        "fcmConfig": {
            "serverSecretKey": ""
        },
        "rbacConfig": {
            "webSessionTime": 1800000,
            "mobileIOSSessionDay": 30,
            "tvSessionDay": 30,
            "defaultToken": "abcd1234"
        },
        "externalUrls": {},
        "redisConfig": {
            "port": 6379,
            "host": "localhost"
        },
        "myHost": "localhost"
    }
}
